reset
set xrange [-0.20000000000000018:21.17558977487802]
set yrange [39.93392689846478:61.3095166733428]
set size ratio 1.0
set title "Fläche der Staaten, Iterationen: 0"
unset xtics
unset ytics
$data << EOD
10.0 51.3 2.4302777619029476 D 0
5.3 52.2 0.833578395339317 NL 1
4.8 50.7 0.7388882746078336 B 2
6.1 49.8 0.22278319716975173 L 3
2.8 47.4 3.0 F 4
8.2 46.9 0.8235950604085795 CH 5
14.2 47.6 1.1788578719900635 A 6
15.3 49.8 1.143234575280877 CZ 7
18.9 52.2 2.275589774878023 PL 8
9.6 56.0 0.8434435718075807 DK 9
EOD
plot \
'$data' using 1:2:3:5 with circles lc var notitle, \
'$data' using 1:2:4:5 with labels font "arial,9" tc var notitle