\relax 
\providecommand*\new@tpo@label[2]{}
\catcode `"\active 
\babel@aux{ngerman}{}
\@writefile{toc}{\contentsline {section}{\numberline {1}Juristische Erkl\IeC {\"a}rung}{4}}
\@writefile{toc}{\contentsline {section}{\numberline {2}Aufgabenbeschreibung und -analyse}{5}}
\@writefile{toc}{\contentsline {section}{\numberline {3}Programmbeschreibung}{6}}
\newlabel{programmbeschreibung}{{3}{6}}
\newlabel{programmbeschreibung@cref}{{[section][3][]3}{[1][6][]6}}
\@writefile{toc}{\contentsline {subsection}{\numberline {3.1}\IeC {\"A}nderungen zum Konzepttag}{6}}
\newlabel{aenderungen}{{3.1}{6}}
\newlabel{aenderungen@cref}{{[subsection][1][3]3.1}{[1][6][]6}}
\@writefile{toc}{\contentsline {subsection}{\numberline {3.2}Struktogramme}{8}}
\newlabel{struktogramme}{{3.2}{8}}
\newlabel{struktogramme@cref}{{[subsection][2][3]3.2}{[1][8][]8}}
\@writefile{toc}{\contentsline {subsubsection}{\numberline {3.2.1}Kontrolle}{8}}
\@writefile{lof}{\contentsline {figure}{\numberline {1}{\ignorespaces Struktogramm Hauptprogramm.main}}{9}}
\newlabel{fig:struktogramm-main}{{1}{9}}
\newlabel{fig:struktogramm-main@cref}{{[figure][1][]1}{[1][8][]9}}
\@writefile{lof}{\contentsline {figure}{\numberline {2}{\ignorespaces Struktogramm Kennwertdarstellung.hauptRoutine}}{10}}
\newlabel{fig:struktogramm-hauptRoutine}{{2}{10}}
\newlabel{fig:struktogramm-hauptRoutine@cref}{{[figure][2][]2}{[1][9][]10}}
\@writefile{toc}{\contentsline {subsubsection}{\numberline {3.2.2}Eingabe}{10}}
\@writefile{lof}{\contentsline {figure}{\numberline {3}{\ignorespaces Struktogramm DateiEingabe.einlesen}}{11}}
\newlabel{fig:struktogramm-einlesen}{{3}{11}}
\newlabel{fig:struktogramm-einlesen@cref}{{[figure][3][]3}{[1][11][]11}}
\@writefile{lof}{\contentsline {figure}{\numberline {4}{\ignorespaces Struktogramm DateiEingabe.staatenZeileEinlesen}}{13}}
\newlabel{fig:struktogramm-staatenZeileEinlesen}{{4}{13}}
\newlabel{fig:struktogramm-staatenZeileEinlesen@cref}{{[figure][4][]4}{[1][12][]13}}
\@writefile{lof}{\contentsline {figure}{\numberline {5}{\ignorespaces Struktogramm DateiEingabe.nachbarschaftsZeileEinlesen}}{14}}
\newlabel{fig:struktogramm-nachbarschaftsZeileEinlesen}{{5}{14}}
\newlabel{fig:struktogramm-nachbarschaftsZeileEinlesen@cref}{{[figure][5][]5}{[1][14][]14}}
\@writefile{lof}{\contentsline {figure}{\numberline {6}{\ignorespaces Struktogramm DateiEingabe.entferneKommentare}}{15}}
\newlabel{fig:struktogramm-entferneKommentare}{{6}{15}}
\newlabel{fig:struktogramm-entferneKommentare@cref}{{[figure][6][]6}{[1][15][]15}}
\@writefile{toc}{\contentsline {subsubsection}{\numberline {3.2.3}Voriteration}{15}}
\@writefile{lof}{\contentsline {figure}{\numberline {7}{\ignorespaces Struktogramm Kennwertdarstellung.auflockern}}{16}}
\newlabel{fig:struktogramm-auflockern}{{7}{16}}
\newlabel{fig:struktogramm-auflockern@cref}{{[figure][7][]7}{[1][16][]16}}
\@writefile{toc}{\contentsline {subsubsection}{\numberline {3.2.4}Berechnen der Anziehungs- und Absto\IeC {\ss }ungskr\IeC {\"a}fte}{16}}
\@writefile{lof}{\contentsline {figure}{\numberline {8}{\ignorespaces Struktogramm Kennwertdarstellung.berechneAlphas}}{18}}
\newlabel{fig:struktogramm-berechneAlphas}{{8}{18}}
\newlabel{fig:struktogramm-berechneAlphas@cref}{{[figure][8][]8}{[1][17][]18}}
\@writefile{lof}{\contentsline {figure}{\numberline {9}{\ignorespaces Struktogramm Kennwertdarstellung.berechneBetas}}{20}}
\newlabel{fig:struktogramm-berechneBetas}{{9}{20}}
\newlabel{fig:struktogramm-berechneBetas@cref}{{[figure][9][]9}{[1][19][]20}}
\@writefile{toc}{\contentsline {subsubsection}{\numberline {3.2.5}Verschiebung der Mittelpunkte}{21}}
\@writefile{lof}{\contentsline {figure}{\numberline {10}{\ignorespaces Struktogramm Kennwertdarstellung.verschiebeMittelpunkte}}{21}}
\newlabel{fig:struktogramm-verschiebeMittelpunkte}{{10}{21}}
\newlabel{fig:struktogramm-verschiebeMittelpunkte@cref}{{[figure][10][]10}{[1][21][]21}}
\@writefile{toc}{\contentsline {subsubsection}{\numberline {3.2.6}Ausgabe}{21}}
\@writefile{lof}{\contentsline {figure}{\numberline {11}{\ignorespaces Struktogramm DateiAusgabe.ausgeben}}{22}}
\newlabel{fig:struktogramm-ausgeben}{{11}{22}}
\newlabel{fig:struktogramm-ausgeben@cref}{{[figure][11][]11}{[1][22][]22}}
\@writefile{lof}{\contentsline {figure}{\numberline {12}{\ignorespaces Struktogramm DateiAusgabe.berechneAusgabe}}{22}}
\newlabel{fig:struktogramm-berechneAusgabe}{{12}{22}}
\newlabel{fig:struktogramm-berechneAusgabe@cref}{{[figure][12][]12}{[1][22][]22}}
\@writefile{lof}{\contentsline {figure}{\numberline {13}{\ignorespaces Struktogramm DateiAusgabe.berechneQuadrat}}{24}}
\newlabel{fig:struktogramm-berechneQuadrat}{{13}{24}}
\newlabel{fig:struktogramm-berechneQuadrat@cref}{{[figure][13][]13}{[1][23][]24}}
\@writefile{toc}{\contentsline {subsubsection}{\numberline {3.2.7}Sonstiges}{24}}
\@writefile{lof}{\contentsline {figure}{\numberline {14}{\ignorespaces Struktogramm Kennwertdarstellung.isKonvergent}}{25}}
\newlabel{fig:struktogramm-isKonvergent}{{14}{25}}
\newlabel{fig:struktogramm-isKonvergent@cref}{{[figure][14][]14}{[1][25][]25}}
\@writefile{toc}{\contentsline {subsection}{\numberline {3.3}UML-Klassendiagramm}{25}}
\newlabel{klassendiagramm}{{3.3}{25}}
\newlabel{klassendiagramm@cref}{{[subsection][3][3]3.3}{[1][25][]25}}
\@writefile{lof}{\contentsline {figure}{\numberline {15}{\ignorespaces UML-Klassendiagramm}}{27}}
\newlabel{fig:uml-klassendiagramm}{{15}{27}}
\newlabel{fig:uml-klassendiagramm@cref}{{[figure][15][]15}{[1][26][]27}}
\@writefile{toc}{\contentsline {subsection}{\numberline {3.4}UML-Sequenzdiagramm}{27}}
\newlabel{sequenzdiagramm}{{3.4}{27}}
\newlabel{sequenzdiagramm@cref}{{[subsection][4][3]3.4}{[1][27][]27}}
\@writefile{lof}{\contentsline {figure}{\numberline {16}{\ignorespaces UML-Sequenzdiagramm}}{28}}
\newlabel{fig:uml-sequenzdiagramm}{{16}{28}}
\newlabel{fig:uml-sequenzdiagramm@cref}{{[figure][16][]16}{[1][28][]28}}
\@writefile{toc}{\contentsline {section}{\numberline {4}Testf\IeC {\"a}lle}{29}}
\newlabel{testfalle}{{4}{29}}
\newlabel{testfalle@cref}{{[section][4][]4}{[1][29][]29}}
\@writefile{toc}{\contentsline {subsection}{\numberline {4.1}\IeC {\"A}quivalenzklassen}{29}}
\newlabel{aequivalenzklassen}{{4.1}{29}}
\newlabel{aequivalenzklassen@cref}{{[subsection][1][4]4.1}{[1][29][]29}}
\@writefile{toc}{\contentsline {subsection}{\numberline {4.2}Normalf\IeC {\"a}lle}{29}}
\@writefile{toc}{\contentsline {subsubsection}{\numberline {4.2.1}Fl\IeC {\"a}che Deutschland und Nachbarstaaten (Aufgabenstellung)}{29}}
\newlabel{normalfall:ihk-1}{{4.2.1}{29}}
\newlabel{normalfall:ihk-1@cref}{{[subsubsection][1][4,2]4.2.1}{[1][29][]29}}
\newlabel{listing:input/ihk-testfall-1.in}{{1}{29}}
\newlabel{listing:input/ihk-testfall-1.in@cref}{{[listing][1][]1}{[1][29][]29}}
\@writefile{lol}{\contentsline {lstlisting}{\numberline {1}input/ihk-testfall-1.in}{29}}
\newlabel{listing:output/ihk-testfal-1.out}{{2}{30}}
\newlabel{listing:output/ihk-testfal-1.out@cref}{{[listing][2][]2}{[1][30][]30}}
\@writefile{lol}{\contentsline {lstlisting}{\numberline {2}output/ihk-testfall-1.out}{30}}
\@writefile{lof}{\contentsline {figure}{\numberline {17}{\ignorespaces Fl\IeC {\"a}che Deutschland und Nachbarstaaten (Aufgabenstellung)}}{31}}
\newlabel{fig:gnuplot-ihk-testfall-1}{{17}{31}}
\newlabel{fig:gnuplot-ihk-testfall-1@cref}{{[figure][17][]17}{[1][30][]31}}
\@writefile{toc}{\contentsline {subsubsection}{\numberline {4.2.2}Bierkonsum Deutschland und Nachbarstaaten (Aufgabenstellung)}{31}}
\newlabel{listing:input/ihk-testfall-2.in}{{3}{31}}
\newlabel{listing:input/ihk-testfall-2.in@cref}{{[listing][3][]3}{[1][31][]31}}
\@writefile{lol}{\contentsline {lstlisting}{\numberline {3}input/ihk-testfall-2.in}{31}}
\newlabel{listing:output/ihk-testfal-2.out}{{4}{32}}
\newlabel{listing:output/ihk-testfal-2.out@cref}{{[listing][4][]4}{[1][32][]32}}
\@writefile{lol}{\contentsline {lstlisting}{\numberline {4}output/ihk-testfall-2.out}{32}}
\@writefile{lof}{\contentsline {figure}{\numberline {18}{\ignorespaces Bierkonsum Deutschland und Nachbarstaaten (Aufgabenstellung)}}{33}}
\newlabel{fig:gnuplot-ihk-testfall-2}{{18}{33}}
\newlabel{fig:gnuplot-ihk-testfall-2@cref}{{[figure][18][]18}{[1][32][]33}}
\@writefile{toc}{\contentsline {subsubsection}{\numberline {4.2.3}Fl\IeC {\"a}che Staaten Mitteleuropas (Aufgabenstellung)}{33}}
\newlabel{listing:input/ihk-testfall-3.in}{{5}{33}}
\newlabel{listing:input/ihk-testfall-3.in@cref}{{[listing][5][]5}{[1][33][]33}}
\@writefile{lol}{\contentsline {lstlisting}{\numberline {5}input/ihk-testfall-3.in}{33}}
\newlabel{listing:output/ihk-testfal-3.out}{{6}{34}}
\newlabel{listing:output/ihk-testfal-3.out@cref}{{[listing][6][]6}{[1][34][]34}}
\@writefile{lol}{\contentsline {lstlisting}{\numberline {6}output/ihk-testfall-3.out}{34}}
\@writefile{lof}{\contentsline {figure}{\numberline {19}{\ignorespaces Fl\IeC {\"a}che Staaten Mitteleuropas (Aufgabenstellung)}}{36}}
\newlabel{fig:gnuplot-ihk-testfall-3}{{19}{36}}
\newlabel{fig:gnuplot-ihk-testfall-3@cref}{{[figure][19][]19}{[1][35][]36}}
\@writefile{toc}{\contentsline {subsection}{\numberline {4.3}Sonderf\IeC {\"a}lle}{36}}
\@writefile{toc}{\contentsline {subsubsection}{\numberline {4.3.1}Leerzeilen und Kommentare}{36}}
\newlabel{listing:input/sonderfaelle/leerzeilen-und-kommentare.in}{{7}{36}}
\newlabel{listing:input/sonderfaelle/leerzeilen-und-kommentare.in@cref}{{[listing][7][]7}{[1][36][]36}}
\@writefile{lol}{\contentsline {lstlisting}{\numberline {7}input/sonderfaelle/leerzeilen-und-kommentare.in}{36}}
\newlabel{listing:output/sonderfaelle-leerzeilen-und-kommentare.out}{{8}{37}}
\newlabel{listing:output/sonderfaelle-leerzeilen-und-kommentare.out@cref}{{[listing][8][]8}{[1][37][]37}}
\@writefile{lol}{\contentsline {lstlisting}{\numberline {8}output/sonderfaelle-leerzeilen-und-kommentare.out}{37}}
\@writefile{lof}{\contentsline {figure}{\numberline {20}{\ignorespaces Leerzeilen und Kommentare}}{38}}
\newlabel{fig:gnuplot-sonderfaelle-leerzeilen-und-kommentare}{{20}{38}}
\newlabel{fig:gnuplot-sonderfaelle-leerzeilen-und-kommentare@cref}{{[figure][20][]20}{[1][38][]38}}
\@writefile{toc}{\contentsline {subsubsection}{\numberline {4.3.2}Leerzeichen und Tabulatoren}{38}}
\newlabel{listing:input/sonderfaelle/leerzeichen-und-tabulatoren.in}{{9}{38}}
\newlabel{listing:input/sonderfaelle/leerzeichen-und-tabulatoren.in@cref}{{[listing][9][]9}{[1][38][]38}}
\@writefile{lol}{\contentsline {lstlisting}{\numberline {9}input/sonderfaelle/leerzeichen-und-tabulatoren.in}{38}}
\newlabel{listing:output/sonderfaelle-leerzeichen-und-tabulatoren.out}{{10}{39}}
\newlabel{listing:output/sonderfaelle-leerzeichen-und-tabulatoren.out@cref}{{[listing][10][]10}{[1][39][]39}}
\@writefile{lol}{\contentsline {lstlisting}{\numberline {10}output/sonderfaelle-leerzeichen-und-tabulatoren.out}{39}}
\@writefile{lof}{\contentsline {figure}{\numberline {21}{\ignorespaces Leerzeichen und Tabulatoren}}{40}}
\newlabel{fig:gnuplot-sonderfaelle-leerzeichen-und-tabulatoren}{{21}{40}}
\newlabel{fig:gnuplot-sonderfaelle-leerzeichen-und-tabulatoren@cref}{{[figure][21][]21}{[1][39][]40}}
\@writefile{toc}{\contentsline {subsubsection}{\numberline {4.3.3}Zwei Staaten auf selbem Mittelpunkt}{40}}
\newlabel{listing:input/sonderfaelle/identischer-mittelpunkt.in}{{11}{40}}
\newlabel{listing:input/sonderfaelle/identischer-mittelpunkt.in@cref}{{[listing][11][]11}{[1][40][]40}}
\@writefile{lol}{\contentsline {lstlisting}{\numberline {11}input/sonderfaelle/identischer-mittelpunkt.in}{40}}
\newlabel{listing:output/sonderfaelle-identischer-mittelpunkt.out}{{12}{41}}
\newlabel{listing:output/sonderfaelle-identischer-mittelpunkt.out@cref}{{[listing][12][]12}{[1][41][]41}}
\@writefile{lol}{\contentsline {lstlisting}{\numberline {12}output/sonderfaelle-identischer-mittelpunkt.out}{41}}
\@writefile{lof}{\contentsline {figure}{\numberline {22}{\ignorespaces Zwei Staaten auf selbem Mittelpunkt}}{42}}
\newlabel{fig:gnuplot-sonderfaelle-identischer-mittelpunkt}{{22}{42}}
\newlabel{fig:gnuplot-sonderfaelle-identischer-mittelpunkt@cref}{{[figure][22][]22}{[1][41][]42}}
\@writefile{toc}{\contentsline {subsubsection}{\numberline {4.3.4}Leere Nachbarschaftsliste}{42}}
\newlabel{listing:input/sonderfaelle/leere-nachbarschaftsliste.in}{{13}{42}}
\newlabel{listing:input/sonderfaelle/leere-nachbarschaftsliste.in@cref}{{[listing][13][]13}{[1][42][]42}}
\@writefile{lol}{\contentsline {lstlisting}{\numberline {13}input/sonderfaelle/leere-nachbarschaftsliste.in}{42}}
\newlabel{listing:output/sonderfaelle-leere-nachbarschaftsliste.out}{{14}{43}}
\newlabel{listing:output/sonderfaelle-leere-nachbarschaftsliste.out@cref}{{[listing][14][]14}{[1][43][]43}}
\@writefile{lol}{\contentsline {lstlisting}{\numberline {14}output/sonderfaelle-leere-nachbarschaftsliste.out}{43}}
\@writefile{lof}{\contentsline {figure}{\numberline {23}{\ignorespaces Leere Nachbarschaftsliste}}{44}}
\newlabel{fig:gnuplot-sonderfaelle-leere-nachbarschaftsliste}{{23}{44}}
\newlabel{fig:gnuplot-sonderfaelle-leere-nachbarschaftsliste@cref}{{[figure][23][]23}{[1][43][]44}}
\@writefile{toc}{\contentsline {subsubsection}{\numberline {4.3.5}Keine Nachbarschaftsdefinitionszeilen}{44}}
\newlabel{listing:input/sonderfaelle/keine-nachbarschaften.in}{{15}{44}}
\newlabel{listing:input/sonderfaelle/keine-nachbarschaften.in@cref}{{[listing][15][]15}{[1][44][]44}}
\@writefile{lol}{\contentsline {lstlisting}{\numberline {15}input/sonderfaelle/keine-nachbarschaften.in}{44}}
\newlabel{listing:output/sonderfaelle-keine-nachbarschaften.out}{{16}{44}}
\newlabel{listing:output/sonderfaelle-keine-nachbarschaften.out@cref}{{[listing][16][]16}{[1][44][]44}}
\@writefile{lol}{\contentsline {lstlisting}{\numberline {16}output/sonderfaelle-keine-nachbarschaften.out}{44}}
\@writefile{lof}{\contentsline {figure}{\numberline {24}{\ignorespaces Keine Nachbarschaftsdefinitionszeilen}}{45}}
\newlabel{fig:gnuplot-sonderfaelle-keine-nachbarschaften}{{24}{45}}
\newlabel{fig:gnuplot-sonderfaelle-keine-nachbarschaften@cref}{{[figure][24][]24}{[1][45][]45}}
\@writefile{toc}{\contentsline {subsubsection}{\numberline {4.3.6}Sehr kleine Werte}{45}}
\newlabel{listing:input/sonderfaelle/sehr-kleine-werte.in}{{17}{46}}
\newlabel{listing:input/sonderfaelle/sehr-kleine-werte.in@cref}{{[listing][17][]17}{[1][46][]46}}
\@writefile{lol}{\contentsline {lstlisting}{\numberline {17}input/sonderfaelle/sehr-kleine-werte.in}{46}}
\newlabel{listing:output/sonderfaelle-sehr-kleine-werte.out}{{18}{46}}
\newlabel{listing:output/sonderfaelle-sehr-kleine-werte.out@cref}{{[listing][18][]18}{[1][46][]46}}
\@writefile{lol}{\contentsline {lstlisting}{\numberline {18}output/sonderfaelle-sehr-kleine-werte.out}{46}}
\@writefile{lof}{\contentsline {figure}{\numberline {25}{\ignorespaces Sehr kleine Werte}}{47}}
\newlabel{fig:gnuplot-sonderfaelle-sehr-kleine-werte}{{25}{47}}
\newlabel{fig:gnuplot-sonderfaelle-sehr-kleine-werte@cref}{{[figure][25][]25}{[1][47][]47}}
\@writefile{toc}{\contentsline {subsubsection}{\numberline {4.3.7}Sehr gro\IeC {\ss }e Werte}{47}}
\newlabel{listing:input/sonderfaelle/sehr-grosse-werte.in}{{19}{47}}
\newlabel{listing:input/sonderfaelle/sehr-grosse-werte.in@cref}{{[listing][19][]19}{[1][47][]47}}
\@writefile{lol}{\contentsline {lstlisting}{\numberline {19}input/sonderfaelle/sehr-grosse-werte.in}{47}}
\newlabel{listing:output/sonderfaelle-sehr-grosse-werte.out}{{20}{48}}
\newlabel{listing:output/sonderfaelle-sehr-grosse-werte.out@cref}{{[listing][20][]20}{[1][48][]48}}
\@writefile{lol}{\contentsline {lstlisting}{\numberline {20}output/sonderfaelle-sehr-grosse-werte.out}{48}}
\@writefile{lof}{\contentsline {figure}{\numberline {26}{\ignorespaces Sehr gro\IeC {\ss }e Werte}}{49}}
\newlabel{fig:gnuplot-sonderfaelle-sehr-grosse-werte}{{26}{49}}
\newlabel{fig:gnuplot-sonderfaelle-sehr-grosse-werte@cref}{{[figure][26][]26}{[1][48][]49}}
\@writefile{toc}{\contentsline {subsection}{\numberline {4.4}Fehlerf\IeC {\"a}lle}{49}}
\@writefile{toc}{\contentsline {subsubsection}{\numberline {4.4.1}Doppelpunkt in KFZ-Kennzeichen enthalten}{49}}
\newlabel{listing:input/fehlerfaelle/kfz-mit-doppelpunkt.in}{{21}{49}}
\newlabel{listing:input/fehlerfaelle/kfz-mit-doppelpunkt.in@cref}{{[listing][21][]21}{[1][49][]49}}
\@writefile{lol}{\contentsline {lstlisting}{\numberline {21}input/fehlerfaelle/kfz-mit-doppelpunkt.in}{49}}
\@writefile{toc}{\contentsline {subsubsection}{\numberline {4.4.2}L\IeC {\"a}ngengrad -180}{50}}
\newlabel{listing:input/fehlerfaelle/laengengrad-minus-180.in}{{22}{50}}
\newlabel{listing:input/fehlerfaelle/laengengrad-minus-180.in@cref}{{[listing][22][]22}{[1][50][]50}}
\@writefile{lol}{\contentsline {lstlisting}{\numberline {22}input/fehlerfaelle/laengengrad-minus-180.in}{50}}
\@writefile{toc}{\contentsline {subsubsection}{\numberline {4.4.3}L\IeC {\"a}ngengrad gr\IeC {\"o}\IeC {\ss }er 180}{51}}
\newlabel{listing:input/fehlerfaelle/laengengrad-groesser-180.in}{{23}{51}}
\newlabel{listing:input/fehlerfaelle/laengengrad-groesser-180.in@cref}{{[listing][23][]23}{[1][51][]51}}
\@writefile{lol}{\contentsline {lstlisting}{\numberline {23}input/fehlerfaelle/laengengrad-groesser-180.in}{51}}
\@writefile{toc}{\contentsline {subsubsection}{\numberline {4.4.4}Breitengrad kleiner -90}{51}}
\newlabel{listing:input/fehlerfaelle/breitengrad-kleiner-minus-90.in}{{24}{52}}
\newlabel{listing:input/fehlerfaelle/breitengrad-kleiner-minus-90.in@cref}{{[listing][24][]24}{[1][52][]52}}
\@writefile{lol}{\contentsline {lstlisting}{\numberline {24}input/fehlerfaelle/breitengrad-kleiner-minus-90.in}{52}}
\@writefile{toc}{\contentsline {subsubsection}{\numberline {4.4.5}Breitengrad gr\IeC {\"o}\IeC {\ss }er 90}{52}}
\newlabel{listing:input/fehlerfaelle/breitengrad-groesser-90.in}{{25}{52}}
\newlabel{listing:input/fehlerfaelle/breitengrad-groesser-90.in@cref}{{[listing][25][]25}{[1][52][]52}}
\@writefile{lol}{\contentsline {lstlisting}{\numberline {25}input/fehlerfaelle/breitengrad-groesser-90.in}{52}}
\@writefile{toc}{\contentsline {subsubsection}{\numberline {4.4.6}negativer Kennwert}{53}}
\newlabel{listing:input/fehlerfaelle/negativer-kennwert.in}{{26}{53}}
\newlabel{listing:input/fehlerfaelle/negativer-kennwert.in@cref}{{[listing][26][]26}{[1][53][]53}}
\@writefile{lol}{\contentsline {lstlisting}{\numberline {26}input/fehlerfaelle/negativer-kennwert.in}{53}}
\@writefile{toc}{\contentsline {section}{\numberline {5}Anwendung (Benutzeranleitung)}{55}}
\@writefile{toc}{\contentsline {subsection}{\numberline {5.1}Eingabedatei}{55}}
\@writefile{toc}{\contentsline {subsubsection}{\numberline {5.1.1}KFZ-Kennzeichen}{55}}
\@writefile{toc}{\contentsline {subsubsection}{\numberline {5.1.2}Kennwert}{55}}
\@writefile{toc}{\contentsline {subsubsection}{\numberline {5.1.3}Breitengrad}{55}}
\@writefile{toc}{\contentsline {subsubsection}{\numberline {5.1.4}L\IeC {\"a}ngengrad}{55}}
\@writefile{toc}{\contentsline {subsubsection}{\numberline {5.1.5}Nachbarschaftsliste}{56}}
\@writefile{toc}{\contentsline {subsection}{\numberline {5.2}Graphische Darstellung mit gnuplot}{56}}
\@writefile{toc}{\contentsline {subsection}{\numberline {5.3}Details zu Programmiersprache und Hauptprogramm}{56}}
\@writefile{toc}{\contentsline {subsection}{\numberline {5.4}Details f\IeC {\"u}r das Testen}{56}}
\@writefile{toc}{\contentsline {subsection}{\numberline {5.5}Fehlermeldungen}{57}}
\@writefile{toc}{\contentsline {section}{\numberline {6}Sprache und Umgebung}{58}}
\@writefile{toc}{\contentsline {subsection}{\numberline {6.1}Wiederverwendbare Klassen und offene Schnittstellen}{58}}
\@writefile{toc}{\contentsline {subsection}{\numberline {6.2}Exceptions}{58}}
\@writefile{toc}{\contentsline {section}{\numberline {7}Zusammenfassung und Ausblick}{59}}
\@writefile{toc}{\contentsline {section}{\numberline {8}Anhang}{60}}
\@writefile{toc}{\contentsline {subsection}{\numberline {8.1}Quellcode}{60}}
\@writefile{toc}{\contentsline {subsubsection}{\numberline {8.1.1}Hauptprogramm}{60}}
\newlabel{listing:code-hauptprogramm}{{27}{60}}
\newlabel{listing:code-hauptprogramm@cref}{{[listing][27][]27}{[1][60][]60}}
\@writefile{lol}{\contentsline {lstlisting}{\numberline {27}src/Hauptprogramm.java}{60}}
\newlabel{listing:code-kennwertdarstellung}{{28}{61}}
\newlabel{listing:code-kennwertdarstellung@cref}{{[listing][28][]28}{[1][61][]61}}
\@writefile{lol}{\contentsline {lstlisting}{\numberline {28}src/Kennwertdarstellung.java}{61}}
\@writefile{toc}{\contentsline {subsubsection}{\numberline {8.1.2}Eingabe}{69}}
\newlabel{listing:code-eingabe}{{29}{69}}
\newlabel{listing:code-eingabe@cref}{{[listing][29][]29}{[1][69][]69}}
\@writefile{lol}{\contentsline {lstlisting}{\numberline {29}src/Eingabe.java}{69}}
\newlabel{listing:code-dateieingabe}{{30}{69}}
\newlabel{listing:code-dateieingabe@cref}{{[listing][30][]30}{[1][69][]69}}
\@writefile{lol}{\contentsline {lstlisting}{\numberline {30}src/DateiEingabe.java}{69}}
\@writefile{toc}{\contentsline {subsubsection}{\numberline {8.1.3}Ausgabe}{76}}
\newlabel{listing:code-ausgabe}{{31}{76}}
\newlabel{listing:code-ausgabe@cref}{{[listing][31][]31}{[1][76][]76}}
\@writefile{lol}{\contentsline {lstlisting}{\numberline {31}src/Ausgabe.java}{76}}
\newlabel{listing:code-dateiausgabe}{{32}{78}}
\newlabel{listing:code-dateiausgabe@cref}{{[listing][32][]32}{[1][78][]78}}
\@writefile{lol}{\contentsline {lstlisting}{\numberline {32}src/DateiAusgabe.java}{78}}
\@writefile{toc}{\contentsline {subsubsection}{\numberline {8.1.4}Hilfsklassen}{80}}
\newlabel{listing:code-vektor}{{33}{80}}
\newlabel{listing:code-vektor@cref}{{[listing][33][]33}{[1][80][]80}}
\@writefile{lol}{\contentsline {lstlisting}{\numberline {33}src/Vektor.java}{80}}
\newlabel{listing:code-staat}{{34}{82}}
\newlabel{listing:code-staat@cref}{{[listing][34][]34}{[1][82][]82}}
\@writefile{lol}{\contentsline {lstlisting}{\numberline {34}src/Staat.java}{82}}
\newlabel{listing:code-kreis}{{35}{84}}
\newlabel{listing:code-kreis@cref}{{[listing][35][]35}{[1][84][]84}}
\@writefile{lol}{\contentsline {lstlisting}{\numberline {35}src/Kreis.java}{84}}
\newlabel{listing:code-nachbarschaften}{{36}{86}}
\newlabel{listing:code-nachbarschaften@cref}{{[listing][36][]36}{[1][86][]86}}
\@writefile{lol}{\contentsline {lstlisting}{\numberline {36}src/Nachbarschaften.java}{86}}
\@writefile{toc}{\contentsline {subsection}{\numberline {8.2}Test-Skript}{87}}
\newlabel{listing:code-runAllTests}{{37}{87}}
\newlabel{listing:code-runAllTests@cref}{{[listing][37][]37}{[1][87][]87}}
\@writefile{lol}{\contentsline {lstlisting}{\numberline {37}runAllTests.sh}{87}}
\global\@namedef{scr@dte@section@lastmaxnumwidth}{10.85587pt}
\global\@namedef{scr@dte@subsection@lastmaxnumwidth}{18.26904pt}
\global\@namedef{scr@dte@subsubsection@lastmaxnumwidth}{26.73907pt}
