\relax 
\providecommand\hyper@newdestlabel[2]{}
\providecommand\HyperFirstAtBeginDocument{\AtBeginDocument}
\HyperFirstAtBeginDocument{\ifx\hyper@anchor\@undefined
\global\let\oldcontentsline\contentsline
\gdef\contentsline#1#2#3#4{\oldcontentsline{#1}{#2}{#3}}
\global\let\oldnewlabel\newlabel
\gdef\newlabel#1#2{\newlabelxx{#1}#2}
\gdef\newlabelxx#1#2#3#4#5#6{\oldnewlabel{#1}{{#2}{#3}}}
\AtEndDocument{\ifx\hyper@anchor\@undefined
\let\contentsline\oldcontentsline
\let\newlabel\oldnewlabel
\fi}
\fi}
\global\let\hyper@last\relax 
\gdef\HyperFirstAtBeginDocument#1{#1}
\providecommand\HyField@AuxAddToFields[1]{}
\providecommand\HyField@AuxAddToCoFields[2]{}
\catcode `"\active 
\abx@aux@refcontext{anyt/global//global/global}
\AC@reset@newl@bel
\pgfsyspdfmark {pgfid2}{0}{17900937}
\providecommand \oddpage@label [2]{}
\@writefile{toc}{\boolfalse {citerequest}\boolfalse {citetracker}\boolfalse {pagetracker}\boolfalse {backtracker}\relax }
\@writefile{lof}{\boolfalse {citerequest}\boolfalse {citetracker}\boolfalse {pagetracker}\boolfalse {backtracker}\relax }
\@writefile{lot}{\boolfalse {citerequest}\boolfalse {citetracker}\boolfalse {pagetracker}\boolfalse {backtracker}\relax }
\babel@aux{ngerman}{}
\@writefile{nav}{\defcounter {refsection}{0}\relax }\@writefile{nav}{\headcommand {\slideentry {0}{0}{1}{1/1}{}{0}}}
\@writefile{nav}{\defcounter {refsection}{0}\relax }\@writefile{nav}{\headcommand {\beamer@framepages {1}{1}}}
\pgfsyspdfmark {pgfid3}{0}{17900937}
\@writefile{nav}{\defcounter {refsection}{0}\relax }\@writefile{nav}{\headcommand {\slideentry {0}{0}{2}{2/2}{}{0}}}
\@writefile{nav}{\defcounter {refsection}{0}\relax }\@writefile{nav}{\headcommand {\beamer@framepages {2}{2}}}
\pgfsyspdfmark {pgfid4}{0}{17900937}
\@writefile{nav}{\defcounter {refsection}{0}\relax }\@writefile{nav}{\headcommand {\slideentry {0}{0}{3}{3/3}{}{0}}}
\@writefile{nav}{\defcounter {refsection}{0}\relax }\@writefile{nav}{\headcommand {\beamer@framepages {3}{3}}}
\pgfsyspdfmark {pgfid5}{0}{17900937}
\@writefile{nav}{\defcounter {refsection}{0}\relax }\@writefile{nav}{\headcommand {\slideentry {0}{0}{4}{4/4}{}{0}}}
\@writefile{nav}{\defcounter {refsection}{0}\relax }\@writefile{nav}{\headcommand {\beamer@framepages {4}{4}}}
\pgfsyspdfmark {pgfid6}{0}{17900937}
\@writefile{nav}{\defcounter {refsection}{0}\relax }\@writefile{nav}{\headcommand {\slideentry {0}{0}{5}{5/5}{}{0}}}
\@writefile{nav}{\defcounter {refsection}{0}\relax }\@writefile{nav}{\headcommand {\beamer@framepages {5}{5}}}
\pgfsyspdfmark {pgfid7}{0}{17900937}
\@writefile{nav}{\defcounter {refsection}{0}\relax }\@writefile{nav}{\headcommand {\slideentry {0}{0}{6}{6/6}{}{0}}}
\@writefile{nav}{\defcounter {refsection}{0}\relax }\@writefile{nav}{\headcommand {\beamer@framepages {6}{6}}}
\pgfsyspdfmark {pgfid8}{0}{17900937}
\@writefile{nav}{\defcounter {refsection}{0}\relax }\@writefile{nav}{\headcommand {\slideentry {0}{0}{7}{7/7}{}{0}}}
\@writefile{nav}{\defcounter {refsection}{0}\relax }\@writefile{nav}{\headcommand {\beamer@framepages {7}{7}}}
\pgfsyspdfmark {pgfid9}{0}{17900937}
\providecommand*\caption@xref[2]{\@setref\relax\@undefined{#1}}
\newlabel{fig:uml-klassendiagramm}{{1}{8}{UML-Klassendiagramm}{Doc-Start}{}}
\newlabel{fig:uml-klassendiagramm@cref}{{[figure][1][]1}{[1][8][]8}}
\@writefile{snm}{\defcounter {refsection}{0}\relax }\@writefile{snm}{\beamer@slide {fig:uml-klassendiagramm}{8}}
\@writefile{nav}{\defcounter {refsection}{0}\relax }\@writefile{nav}{\headcommand {\slideentry {0}{0}{8}{8/8}{}{0}}}
\@writefile{nav}{\defcounter {refsection}{0}\relax }\@writefile{nav}{\headcommand {\beamer@framepages {8}{8}}}
\pgfsyspdfmark {pgfid10}{0}{17900937}
\newlabel{fig:struktogramm-hauptRoutine}{{2}{9}{Struktogramm Kennwertdarstellung.hauptRoutine}{Doc-Start}{}}
\newlabel{fig:struktogramm-hauptRoutine@cref}{{[figure][2][]2}{[1][9][]9}}
\@writefile{snm}{\defcounter {refsection}{0}\relax }\@writefile{snm}{\beamer@slide {fig:struktogramm-hauptRoutine}{9}}
\@writefile{nav}{\defcounter {refsection}{0}\relax }\@writefile{nav}{\headcommand {\slideentry {0}{0}{9}{9/9}{}{0}}}
\@writefile{nav}{\defcounter {refsection}{0}\relax }\@writefile{nav}{\headcommand {\beamer@framepages {9}{9}}}
\pgfsyspdfmark {pgfid11}{0}{17900937}
\@writefile{nav}{\defcounter {refsection}{0}\relax }\@writefile{nav}{\headcommand {\slideentry {0}{0}{10}{10/10}{}{0}}}
\@writefile{nav}{\defcounter {refsection}{0}\relax }\@writefile{nav}{\headcommand {\beamer@framepages {10}{10}}}
\pgfsyspdfmark {pgfid12}{0}{17900937}
\newlabel{listing:input/ihk-testfall-1.in}{{1}{11}{input/ihk-testfall-1.in}{Doc-Start}{}}
\newlabel{listing:input/ihk-testfall-1.in@cref}{{[lstlisting][1][]1}{[1][11][]11}}
\@writefile{snm}{\defcounter {refsection}{0}\relax }\@writefile{snm}{\beamer@slide {listing:input/ihk-testfall-1.in}{11}}
\@writefile{lol}{\defcounter {refsection}{0}\relax }\@writefile{lol}{\contentsline {lstlisting}{\numberline {1}input/ihk-testfall-1.in}}
\@writefile{nav}{\defcounter {refsection}{0}\relax }\@writefile{nav}{\headcommand {\slideentry {0}{0}{11}{11/11}{}{0}}}
\@writefile{nav}{\defcounter {refsection}{0}\relax }\@writefile{nav}{\headcommand {\beamer@framepages {11}{11}}}
\pgfsyspdfmark {pgfid13}{0}{17900937}
\newlabel{listing:output/ihk-testfal-1.out}{{2}{12}{output/ihk-testfall-1.out}{Doc-Start}{}}
\newlabel{listing:output/ihk-testfal-1.out@cref}{{[lstlisting][2][]2}{[1][12][]12}}
\@writefile{snm}{\defcounter {refsection}{0}\relax }\@writefile{snm}{\beamer@slide {listing:output/ihk-testfal-1.out}{12}}
\@writefile{lol}{\defcounter {refsection}{0}\relax }\@writefile{lol}{\contentsline {lstlisting}{\numberline {2}output/ihk-testfall-1.out}}
\@writefile{nav}{\defcounter {refsection}{0}\relax }\@writefile{nav}{\headcommand {\slideentry {0}{0}{12}{12/12}{}{0}}}
\@writefile{nav}{\defcounter {refsection}{0}\relax }\@writefile{nav}{\headcommand {\beamer@framepages {12}{12}}}
\pgfsyspdfmark {pgfid14}{0}{17900937}
\newlabel{fig:gnuplot-ihk-testfall-1}{{3}{13}{Fläche Deutschland und Nachbarstaaten (Aufgabenstellung)}{Doc-Start}{}}
\newlabel{fig:gnuplot-ihk-testfall-1@cref}{{[figure][3][]3}{[1][13][]13}}
\@writefile{snm}{\defcounter {refsection}{0}\relax }\@writefile{snm}{\beamer@slide {fig:gnuplot-ihk-testfall-1}{13}}
\@writefile{nav}{\defcounter {refsection}{0}\relax }\@writefile{nav}{\headcommand {\slideentry {0}{0}{13}{13/13}{}{0}}}
\@writefile{nav}{\defcounter {refsection}{0}\relax }\@writefile{nav}{\headcommand {\beamer@framepages {13}{13}}}
\pgfsyspdfmark {pgfid15}{0}{17900937}
\@writefile{nav}{\defcounter {refsection}{0}\relax }\@writefile{nav}{\headcommand {\slideentry {0}{0}{14}{14/14}{}{0}}}
\@writefile{nav}{\defcounter {refsection}{0}\relax }\@writefile{nav}{\headcommand {\beamer@framepages {14}{14}}}
\pgfsyspdfmark {pgfid16}{0}{17900937}
\newlabel{fig:gnuplot-ihk-testfall-3}{{4}{15}{Fläche Staaten Mitteleuropas (Aufgabenstellung)}{Doc-Start}{}}
\newlabel{fig:gnuplot-ihk-testfall-3@cref}{{[figure][4][]4}{[1][15][]15}}
\@writefile{snm}{\defcounter {refsection}{0}\relax }\@writefile{snm}{\beamer@slide {fig:gnuplot-ihk-testfall-3}{15}}
\@writefile{nav}{\defcounter {refsection}{0}\relax }\@writefile{nav}{\headcommand {\slideentry {0}{0}{15}{15/15}{}{0}}}
\@writefile{nav}{\defcounter {refsection}{0}\relax }\@writefile{nav}{\headcommand {\beamer@framepages {15}{15}}}
\pgfsyspdfmark {pgfid17}{0}{17900937}
\@writefile{nav}{\defcounter {refsection}{0}\relax }\@writefile{nav}{\headcommand {\slideentry {0}{0}{16}{16/16}{}{0}}}
\@writefile{nav}{\defcounter {refsection}{0}\relax }\@writefile{nav}{\headcommand {\beamer@framepages {16}{16}}}
\pgfsyspdfmark {pgfid18}{0}{17900937}
\@writefile{nav}{\defcounter {refsection}{0}\relax }\@writefile{nav}{\headcommand {\slideentry {0}{0}{17}{17/17}{}{0}}}
\@writefile{nav}{\defcounter {refsection}{0}\relax }\@writefile{nav}{\headcommand {\beamer@framepages {17}{17}}}
\pgfsyspdfmark {pgfid19}{0}{17900937}
\@writefile{nav}{\defcounter {refsection}{0}\relax }\@writefile{nav}{\headcommand {\slideentry {0}{0}{18}{18/18}{}{0}}}
\@writefile{nav}{\defcounter {refsection}{0}\relax }\@writefile{nav}{\headcommand {\beamer@framepages {18}{18}}}
\pgfsyspdfmark {pgfid20}{0}{17900937}
\@writefile{nav}{\defcounter {refsection}{0}\relax }\@writefile{nav}{\headcommand {\slideentry {0}{0}{19}{19/19}{}{0}}}
\@writefile{nav}{\defcounter {refsection}{0}\relax }\@writefile{nav}{\headcommand {\beamer@framepages {19}{19}}}
\pgfsyspdfmark {pgfid21}{0}{17900937}
\@writefile{nav}{\defcounter {refsection}{0}\relax }\@writefile{nav}{\headcommand {\slideentry {0}{0}{20}{20/20}{}{0}}}
\@writefile{nav}{\defcounter {refsection}{0}\relax }\@writefile{nav}{\headcommand {\beamer@framepages {20}{20}}}
\pgfsyspdfmark {pgfid22}{0}{17900937}
\@writefile{nav}{\defcounter {refsection}{0}\relax }\@writefile{nav}{\headcommand {\slideentry {0}{0}{21}{21/21}{}{0}}}
\@writefile{nav}{\defcounter {refsection}{0}\relax }\@writefile{nav}{\headcommand {\beamer@framepages {21}{21}}}
\pgfsyspdfmark {pgfid23}{0}{17900937}
\newlabel{fig:struktogramm-auflockern}{{5}{22}{Struktogramm Kennwertdarstellung.auflockern}{Doc-Start}{}}
\newlabel{fig:struktogramm-auflockern@cref}{{[figure][5][]5}{[1][22][]22}}
\@writefile{snm}{\defcounter {refsection}{0}\relax }\@writefile{snm}{\beamer@slide {fig:struktogramm-auflockern}{22}}
\@writefile{nav}{\defcounter {refsection}{0}\relax }\@writefile{nav}{\headcommand {\slideentry {0}{0}{22}{22/22}{}{0}}}
\@writefile{nav}{\defcounter {refsection}{0}\relax }\@writefile{nav}{\headcommand {\beamer@framepages {22}{22}}}
\pgfsyspdfmark {pgfid24}{0}{17900937}
\newlabel{fig:struktogramm-isKonvergent}{{6}{23}{Struktogramm Kennwertdarstellung.isKonvergent}{Doc-Start}{}}
\newlabel{fig:struktogramm-isKonvergent@cref}{{[figure][6][]6}{[1][23][]23}}
\@writefile{snm}{\defcounter {refsection}{0}\relax }\@writefile{snm}{\beamer@slide {fig:struktogramm-isKonvergent}{23}}
\@writefile{nav}{\defcounter {refsection}{0}\relax }\@writefile{nav}{\headcommand {\slideentry {0}{0}{23}{23/23}{}{0}}}
\@writefile{nav}{\defcounter {refsection}{0}\relax }\@writefile{nav}{\headcommand {\beamer@framepages {23}{23}}}
\pgfsyspdfmark {pgfid25}{0}{17900937}
\@writefile{nav}{\defcounter {refsection}{0}\relax }\@writefile{nav}{\headcommand {\slideentry {0}{0}{24}{24/24}{}{0}}}
\@writefile{nav}{\defcounter {refsection}{0}\relax }\@writefile{nav}{\headcommand {\beamer@framepages {24}{24}}}
\pgfsyspdfmark {pgfid26}{0}{17900937}
\@writefile{nav}{\defcounter {refsection}{0}\relax }\@writefile{nav}{\headcommand {\slideentry {0}{0}{25}{25/25}{}{0}}}
\@writefile{nav}{\defcounter {refsection}{0}\relax }\@writefile{nav}{\headcommand {\beamer@framepages {25}{25}}}
\pgfsyspdfmark {pgfid27}{0}{17900937}
\@writefile{nav}{\defcounter {refsection}{0}\relax }\@writefile{nav}{\headcommand {\slideentry {0}{0}{26}{26/26}{}{0}}}
\@writefile{nav}{\defcounter {refsection}{0}\relax }\@writefile{nav}{\headcommand {\beamer@framepages {26}{26}}}
\@writefile{nav}{\headcommand {\beamer@partpages {1}{26}}}
\@writefile{nav}{\headcommand {\beamer@subsectionpages {1}{26}}}
\@writefile{nav}{\headcommand {\beamer@sectionpages {1}{26}}}
\@writefile{nav}{\headcommand {\beamer@documentpages {26}}}
\@writefile{nav}{\headcommand {\gdef \inserttotalframenumber {26}}}
